<?xml version="1.0" encoding="UTF-8" standalone="no"?>
<!-- Created with Inkscape (http://www.inkscape.org/) -->

<svg
   xmlns:dc="http://purl.org/dc/elements/1.1/"
   xmlns:cc="http://creativecommons.org/ns#"
   xmlns:rdf="http://www.w3.org/1999/02/22-rdf-syntax-ns#"
   xmlns:svg="http://www.w3.org/2000/svg"
   xmlns="http://www.w3.org/2000/svg"
   xmlns:sodipodi="http://sodipodi.sourceforge.net/DTD/sodipodi-0.dtd"
   xmlns:inkscape="http://www.inkscape.org/namespaces/inkscape"
   width="120mm"
   height="115mm"
   viewBox="0 0 425.19653 407.48032"
   id="svg4265"
   version="1.1"
   inkscape:version="0.92.0 r"
   sodipodi:docname="f.svg">
  <defs
     id="defs4267" />
  <sodipodi:namedview
     id="base"
     pagecolor="#ffffff"
     bordercolor="#666666"
     borderopacity="1.0"
     inkscape:pageopacity="0.0"
     inkscape:pageshadow="2"
     inkscape:zoom="0.65"
     inkscape:cx="230.46923"
     inkscape:cy="330.11027"
     inkscape:document-units="px"
     inkscape:current-layer="layer1"
     showgrid="false"
     inkscape:window-width="1908"
     inkscape:window-height="1048"
     inkscape:window-x="2400"
     inkscape:window-y="20"
     inkscape:window-maximized="0"
     showguides="true"
     inkscape:guide-bbox="true">
    <sodipodi:guide
       position="213.46146,836.53816"
       orientation="1,0"
       id="guide10"
       inkscape:locked="false" />
    <sodipodi:guide
       position="899.99968,203.36531"
       orientation="0,1"
       id="guide12"
       inkscape:locked="false" />
  </sodipodi:namedview>
  <metadata
     id="metadata4270">
    <rdf:RDF>
      <cc:Work
         rdf:about="">
        <dc:format>image/svg+xml</dc:format>
        <dc:type
           rdf:resource="http://purl.org/dc/dcmitype/StillImage" />
        <dc:title />
      </cc:Work>
    </rdf:RDF>
  </metadata>
  <g
     inkscape:label="Layer 1"
     inkscape:groupmode="layer"
     id="layer1"
     transform="translate(0,-644.88191)"
     style="display:inline">
    <g
       transform="matrix(0.61031292,0,0,0.61031292,-434.08891,609.57634)"
       style="font-style:normal;font-weight:normal;font-size:40px;line-height:125%;font-family:sans-serif;letter-spacing:0px;word-spacing:0px;fill:#c40000;fill-opacity:1;stroke:none;stroke-width:1px;stroke-linecap:butt;stroke-linejoin:miter;stroke-opacity:1"
       id="flowRoot4946">
      <path
         d="m 1271.646,203.4485 q 4.9133,8.75854 8.1177,15.59448 l 0.8545,0.21362 -1.709,4.48608 3.2043,8.11768 q -4.2724,19.01245 -15.3808,16.87622 -2.7771,1.92261 -28.8391,7.90405 -12.6038,5.12696 -13.4583,4.91333 l -2.5635,-0.42724 q -0.2136,1.92261 -1.9226,1.49536 -0.8545,-0.21362 -0.8545,-1.06812 -8.5449,4.69971 -61.9507,18.58521 -4.2724,3.63159 -37.1704,14.73999 -22.8576,7.69043 -45.5017,27.34375 -15.8081,19.4397 -32.2571,49.56055 -5.1269,9.61303 -12.6037,16.44897 l -13.4583,21.14868 0.8545,0.21363 q 3.2044,0.42724 26.7029,-10.25391 16.8762,-5.12695 17.3035,-7.04956 7.2632,-1.49536 14.3127,-5.76782 l 1.4954,1.06811 12.3901,-4.27246 q 0.2136,-0.85449 1.0681,-0.64087 1.709,0.64087 1.2818,2.13623 6.195,0.42725 7.0495,-4.48608 l 0.8545,0.21362 2.3499,2.34985 5.7678,-2.7771 3.418,0.64087 -0.4273,2.7771 -1.2817,1.70899 q 4.4861,0.85449 4.0588,2.56347 -1.709,0.64087 -3.6316,0.42725 l -0.2136,1.70898 1.9226,-0.64086 0.4273,2.13623 q -7.9041,1.49536 -27.9847,18.37158 -8.7585,1.49536 -38.6657,18.15796 0.8545,0.21362 0.6408,1.06811 -10.4675,4.27246 -10.6811,5.5542 -4.6997,0.85449 -6.836,4.27246 -6.6223,0.64087 -9.3994,2.99073 v -0.8545 q -1.709,0.64087 -3.6316,0.21363 l 0.6409,1.9226 q -7.6904,1.28174 -17.30346,8.11768 -20.50781,10.25391 -21.3623,14.95361 -2.7771,5.12696 -14.52637,17.94434 -26.06201,44.21997 -36.10229,56.39648 -5.98145,11.32202 -18.15796,23.07129 -6.19507,2.7771 -12.17652,14.73999 -0.42724,1.70899 -12.60376,11.74927 l -1.70898,-1.28174 q -0.64087,3.63159 -3.20435,3.20435 -0.64087,-1.70899 -0.21362,-3.84522 l -1.92261,0.64087 -0.42724,-2.13623 0.42724,-2.56348 2.13623,-2.56347 -1.49536,-1.28174 q -0.64087,3.84521 -3.20434,3.20435 l 0.21362,-1.70899 7.90405,-15.59448 0.21362,-0.85449 -0.64086,-1.92261 q 3.41796,0.64087 3.84521,-1.28174 l 0.21362,-1.70898 -2.7771,1.28173 -0.85449,-0.21362 4.48609,-5.76782 q -0.64087,-1.92261 -0.42725,-2.7771 1.28174,0.21362 8.54492,-13.67188 l 1.70899,-0.42724 -0.42725,-2.13623 q 0.85449,-2.56348 5.34058,-5.5542 l -1.70899,-0.21362 0.21362,-1.92261 q 2.13623,0.42724 7.47681,-12.81738 4.91333,-4.69971 7.47681,-12.60376 4.27246,-4.91333 5.34057,-4.69971 l -0.64087,-1.92261 5.12696,-9.39941 q -27.34375,10.89477 -36.31592,9.18579 l -0.85449,-0.21362 q -10.89478,-5.34058 -16.23535,-25.63477 -0.64087,-6.62231 0.21362,-11.32202 0.21362,-1.28174 4.05884,-2.99072 l 0.85449,0.21362 q 5.5542,1.06811 11.1084,2.99072 10.46753,1.92261 69.85473,-23.71216 47.85161,-74.98169 66.86401,-111.93847 2.1362,-1.06812 8.9722,-16.23536 l 20.0805,-30.12084 16.0218,-15.80811 q 16.4489,-10.25391 17.7307,-10.04028 -0.2136,1.06811 0.6409,1.06811 -3.418,5.12696 -6.836,4.48609 l -0.4272,1.70898 27.1301,-12.81738 -0.8545,-0.21363 q -3.6316,-0.64086 -12.3901,5.34058 l -2.5635,-0.42725 v -1.06811 q 14.3127,-8.97217 69.0002,-23.92578 1.2818,0.42724 11.1084,-1.70899 -6.195,3.84522 -10.6811,5.5542 l -0.2136,1.06812 h 0.8545 q 7.6904,-2.56348 14.9536,-3.84522 l 0.2136,-1.70898 -1.709,-0.42725 0.2136,-0.85449 q 1.709,-2.13623 66.864,-16.6626 14.9537,-3.84521 29.2664,-4.05883 z m -124.3286,29.6936 -0.2136,0.85449 0.8545,0.21362 q 5.9814,-2.7771 9.1857,-2.13623 l 0.4273,-1.70898 -0.8545,-0.21362 q -2.7771,-0.64087 -9.3994,2.99072 z m -8.3313,1.28174 -1.0681,1.70898 2.5634,0.42725 q 0.2137,-1.92261 -1.4953,-2.13623 z m -9.6131,3.84521 v 0.85449 l 1.709,0.42725 1.0681,-1.70898 q -1.7089,0.64086 -2.7771,0.42724 z m -14.0991,4.91333 1.709,0.21362 q 7.4768,-1.70898 7.6904,-3.20434 l -1.7089,-0.42725 q -7.4769,2.13623 -7.6905,3.41797 z m -4.6997,1.06812 -1.0681,1.49536 q 1.709,-0.42725 2.7771,-0.42725 v -0.85449 z"
         style="font-style:normal;font-variant:normal;font-weight:normal;font-stretch:normal;font-size:437.5px;font-family:'The Right Thing';-inkscape-font-specification:'The Right Thing';fill:#c40000;fill-opacity:1"
         id="path4981"
         inkscape:connector-curvature="0" />
    </g>
  </g>
  <g
     inkscape:groupmode="layer"
     id="layer3"
     inkscape:label="Layer 2"
     transform="translate(0,-301.18112)" />
</svg>
